
Currently Loaded Modules:
  1) GCCcore/10.2.0
  2) zlib/1.2.11-GCCcore-10.2.0
  3) binutils/2.35-GCCcore-10.2.0
  4) GCC/10.2.0
  5) numactl/2.0.13-GCCcore-10.2.0
  6) XZ/5.2.5-GCCcore-10.2.0
  7) libxml2/2.9.10-GCCcore-10.2.0
  8) libpciaccess/0.16-GCCcore-10.2.0
  9) hwloc/2.2.0-GCCcore-10.2.0
 10) UCX/1.9.0-GCCcore-10.2.0
 11) libfabric/1.11.0-GCCcore-10.2.0
 12) libevent/2.1.12-GCCcore-10.2.0
 13) PMIx/3.1.5-GCCcore-10.2.0
 14) OpenMPI/4.0.5-GCC-10.2.0
 15) OpenBLAS/0.3.12-GCC-10.2.0
 16) gompi/2020b
 17) FFTW/3.3.8-gompi-2020b
 18) ScaLAPACK/2.1.0-gompi-2020b
 19) foss/2020b
 20) bzip2/1.0.8-GCCcore-10.2.0
 21) ncurses/6.2-GCCcore-10.2.0
 22) libreadline/8.0-GCCcore-10.2.0
 23) Tcl/8.6.10-GCCcore-10.2.0
 24) SQLite/3.33.0-GCCcore-10.2.0
 25) GMP/6.2.0-GCCcore-10.2.0
 26) libffi/3.3-GCCcore-10.2.0
 27) Python/3.8.6-GCCcore-10.2.0
 28) pybind11/2.6.0-GCCcore-10.2.0
 29) SciPy-bundle/2020.11-foss-2020b
 30) Boost/1.74.0-GCC-10.2.0
 31) METIS/5.1.0-GCCcore-10.2.0
 32) SCOTCH/6.1.0-gompi-2020b
 33) MUMPS/5.3.5-foss-2020b-metis
 34) MPFR/4.1.0-GCCcore-10.2.0
 35) SuiteSparse/5.8.1-foss-2020b-METIS-5.1.0
 36) Hypre/2.20.0-foss-2020b
 37) PETSc/3.14.4-foss-2020b
