----------------------------------------------------
Job ordering:  nd
Job processes: 9
----------------------------------------------------
Loaded modules:
----------------------------------------------------
************************************************************************************************************************
***             WIDEN YOUR WINDOW TO 120 CHARACTERS.  Use 'enscript -r -fCourier9' to print this document            ***
************************************************************************************************************************

---------------------------------------------- PETSc Performance Summary: ----------------------------------------------

./ex1 on a  named cn167.barbora.it4i.cz with 9 processors, by hrb33u Tue Sep  7 21:39:16 2021
Using Petsc Release Version 3.14.4, Feb 03, 2021 

                         Max       Max/Min     Avg       Total
Time (sec):           1.956e+00     1.001   1.955e+00
Objects:              1.500e+01     1.000   1.500e+01
Flop:                 0.000e+00     0.000   0.000e+00  0.000e+00
Flop/sec:             0.000e+00     0.000   0.000e+00  0.000e+00
MPI Messages:         3.600e+01     5.143   1.244e+01  1.120e+02
MPI Message Lengths:  2.474e+08     8.402   4.438e+06  4.970e+08
MPI Reductions:       3.200e+01     1.000

Flop counting convention: 1 flop = 1 real number operation of type (multiply/divide/add/subtract)
                            e.g., VecAXPY() for real vectors of length N --> 2N flop
                            and VecAXPY() for complex vectors of length N --> 8N flop

Summary of Stages:   ----- Time ------  ----- Flop ------  --- Messages ---  -- Message Lengths --  -- Reductions --
                        Avg     %Total     Avg     %Total    Count   %Total     Avg         %Total    Count   %Total
 0:      Main Stage: 1.9555e+00 100.0%  0.0000e+00   0.0%  1.120e+02 100.0%  4.438e+06      100.0%  2.500e+01  78.1%

------------------------------------------------------------------------------------------------------------------------
See the 'Profiling' chapter of the users' manual for details on interpreting output.
Phase summary info:
   Count: number of times phase was executed
   Time and Flop: Max - maximum over all processors
                  Ratio - ratio of maximum to minimum over all processors
   Mess: number of messages sent
   AvgLen: average message length (bytes)
   Reduct: number of global reductions
   Global: entire computation
   Stage: stages of a computation. Set stages with PetscLogStagePush() and PetscLogStagePop().
      %T - percent time in this phase         %F - percent flop in this phase
      %M - percent messages in this phase     %L - percent message lengths in this phase
      %R - percent reductions in this phase
   Total Mflop/s: 10e-6 * (sum of flop over all processors)/(max time over all processors)
------------------------------------------------------------------------------------------------------------------------
Event                Count      Time (sec)     Flop                              --- Global ---  --- Stage ----  Total
                   Max Ratio  Max     Ratio   Max  Ratio  Mess   AvgLen  Reduct  %T %F %M %L %R  %T %F %M %L %R Mflop/s
------------------------------------------------------------------------------------------------------------------------

--- Event Stage 0: Main Stage

BuildTwoSided          1 1.0 1.9305e-02362.4 0.00e+00 0.0 3.2e+01 4.0e+00 1.0e+00  1  0 29  0  3   1  0 29  0  4     0
MatAssemblyBegin       1 1.0 5.4960e-06 1.9 0.00e+00 0.0 0.0e+00 0.0e+00 0.0e+00  0  0  0  0  0   0  0  0  0  0     0
MatAssemblyEnd         1 1.0 3.9269e-01 1.2 0.00e+00 0.0 6.4e+01 8.2e+04 5.0e+00 19  0 57  1 16  19  0 57  1 20     0
MatGetRowIJ            1 1.0 1.4877e-02 1.7 0.00e+00 0.0 0.0e+00 0.0e+00 0.0e+00  1  0  0  0  0   1  0  0  0  0     0
MatGetOrdering         1 1.0 2.4459e-01 1.4 0.00e+00 0.0 0.0e+00 0.0e+00 0.0e+00 11  0  0  0  0  11  0  0  0  0     0
MatLoad                1 1.0 1.7061e+00 1.0 0.00e+00 0.0 1.1e+02 4.4e+06 1.7e+01 87  0100100 53  87  0100100 68     0
VecSet                 1 1.0 8.8527e-0415.3 0.00e+00 0.0 0.0e+00 0.0e+00 0.0e+00  0  0  0  0  0   0  0  0  0  0     0
SFSetGraph             1 1.0 1.9030e-0417.8 0.00e+00 0.0 0.0e+00 0.0e+00 0.0e+00  0  0  0  0  0   0  0  0  0  0     0
SFSetUp                1 1.0 2.3046e-02 1.4 0.00e+00 0.0 6.4e+01 8.2e+04 1.0e+00  1  0 57  1  3   1  0 57  1  4     0
Reordering             1 1.0 2.4511e-01 1.0 0.00e+00 0.0 0.0e+00 0.0e+00 4.0e+00 13  0  0  0 12  13  0  0  0 16     0
------------------------------------------------------------------------------------------------------------------------

Memory usage is given in bytes:

Object Type          Creations   Destructions     Memory  Descendants' Mem.
Reports information only for process 0.

--- Event Stage 0: Main Stage

              Viewer     2              1          848     0.
              Matrix     3              3    102378224     0.
         Vec Scatter     1              1          816     0.
              Vector     2              2      4732488     0.
           Index Set     6              6      4427732     0.
   Star Forest Graph     1              1         1152     0.
========================================================================================================================
Average time to get PetscTime(): 2.5e-08
Average time for MPI_Barrier(): 3.0858e-06
Average time for zero size MPI_Send(): 6.97667e-07
#PETSc Option Table entries:
-f ../matrixes/databin/dielFilterV2real.bin
-log_view
-t nd
#End of PETSc Option Table entries
Compiled without FORTRAN kernels
Compiled with full precision matrices (default)
sizeof(short) 2 sizeof(int) 4 sizeof(long) 8 sizeof(void*) 8 sizeof(PetscScalar) 8 sizeof(PetscInt) 4
Configure options: --prefix=/home/hrb33u/.local/easybuild/software/PETSc/3.14.4-foss-2020b --LIBS="-lm -lpthread -lrt" --with-mpi4py=0 --with-cc=mpicc --with-cxx=mpicxx --with-c++-support --with-fc=mpifort --CFLAGS="-O2 -ftree-vectorize -march=native -fno-math-errno -fopenmp -fPIC" --CXXFLAGS="-O2 -ftree-vectorize -march=native -fno-math-errno -fopenmp -fPIC -DOMPI_SKIP_MPICXX -DMPICH_SKIP_MPICXX" --FFLAGS="-O2 -ftree-vectorize -march=native -fno-math-errno -fopenmp -fPIC" --with-mpi=1 --with-build-step-np=16 --with-shared-libraries=1 --with-debugging=0 --with-pic=1 --with-x=0 --with-windows-graphics=0 --with-numpy=1 --with-fftw=1 --with-fftw-lib="[/apps/all/FFTW/3.3.8-gompi-2020b/lib/libfftw3_mpi.a,libfftw3.a]" --with-fftw-include=/apps/all/FFTW/3.3.8-gompi-2020b/include --with-scalapack=1 --with-scalapack-lib="[/apps/all/ScaLAPACK/2.1.0-gompi-2020b/lib/libscalapack.a,libopenblas.a,libgfortran.a]" --with-blaslapack-lib="[/apps/all/OpenBLAS/0.3.12-GCC-10.2.0/lib/libopenblas.a,libgfortran.a]" --with-python=1 --with-python-dir=/apps/all/Python/3.8.6-GCCcore-10.2.0 --with-boost=1 --with-boost-dir=/home/hrb33u/.local/easybuild/software/Boost/1.74.0-GCC-10.2.0 --with-metis=1 --with-metis-dir=/home/hrb33u/.local/easybuild/software/METIS/5.1.0-GCCcore-10.2.0 --with-ptscotch=1 --with-ptscotch-dir=/home/hrb33u/.local/easybuild/software/SCOTCH/6.1.0-gompi-2020b --with-mumps=1 --with-mumps-dir=/home/hrb33u/.local/easybuild/software/MUMPS/5.3.5-foss-2020b-metis --with-hypre=1 --with-hypre-dir=/home/hrb33u/.local/easybuild/software/Hypre/2.20.0-foss-2020b --with-suitesparse=1 --with-suitesparse-include="[/home/hrb33u/.local/easybuild/software/SuiteSparse/5.8.1-foss-2020b-METIS-5.1.0/UMFPACK/Include,/home/hrb33u/.local/easybuild/software/SuiteSparse/5.8.1-foss-2020b-METIS-5.1.0/KLU/Include,/home/hrb33u/.local/easybuild/software/SuiteSparse/5.8.1-foss-2020b-METIS-5.1.0/CHOLMOD/Include,/home/hrb33u/.local/easybuild/software/SuiteSparse/5.8.1-foss-2020b-METIS-5.1.0/BTF/Include,/home/hrb33u/.local/easybuild/software/SuiteSparse/5.8.1-foss-2020b-METIS-5.1.0/CCOLAMD/Include,/home/hrb33u/.local/easybuild/software/SuiteSparse/5.8.1-foss-2020b-METIS-5.1.0/COLAMD/Include,/home/hrb33u/.local/easybuild/software/SuiteSparse/5.8.1-foss-2020b-METIS-5.1.0/CAMD/Include,/home/hrb33u/.local/easybuild/software/SuiteSparse/5.8.1-foss-2020b-METIS-5.1.0/AMD/Include,/home/hrb33u/.local/easybuild/software/SuiteSparse/5.8.1-foss-2020b-METIS-5.1.0/SuiteSparse_config]" --with-suitesparse-lib="[/home/hrb33u/.local/easybuild/software/SuiteSparse/5.8.1-foss-2020b-METIS-5.1.0/UMFPACK/Lib/libumfpack.a,/home/hrb33u/.local/easybuild/software/SuiteSparse/5.8.1-foss-2020b-METIS-5.1.0/KLU/Lib/libklu.a,/home/hrb33u/.local/easybuild/software/SuiteSparse/5.8.1-foss-2020b-METIS-5.1.0/CHOLMOD/Lib/libcholmod.a,/home/hrb33u/.local/easybuild/software/SuiteSparse/5.8.1-foss-2020b-METIS-5.1.0/BTF/Lib/libbtf.a,/home/hrb33u/.local/easybuild/software/SuiteSparse/5.8.1-foss-2020b-METIS-5.1.0/CCOLAMD/Lib/libccolamd.a,/home/hrb33u/.local/easybuild/software/SuiteSparse/5.8.1-foss-2020b-METIS-5.1.0/COLAMD/Lib/libcolamd.a,/home/hrb33u/.local/easybuild/software/SuiteSparse/5.8.1-foss-2020b-METIS-5.1.0/CAMD/Lib/libcamd.a,/home/hrb33u/.local/easybuild/software/SuiteSparse/5.8.1-foss-2020b-METIS-5.1.0/AMD/Lib/libamd.a,/home/hrb33u/.local/easybuild/software/SuiteSparse/5.8.1-foss-2020b-METIS-5.1.0/SuiteSparse_config/libsuitesparseconfig.a]"
-----------------------------------------
Libraries compiled on 2021-08-23 21:22:50 on login1.barbora.it4i.cz 
Machine characteristics: Linux-3.10.0-1160.6.1.el7.x86_64-x86_64-with-glibc2.2.5
Using PETSc directory: /home/hrb33u/.local/easybuild/software/PETSc/3.14.4-foss-2020b
Using PETSc arch: 
-----------------------------------------

Using C compiler: mpicc -O2 -ftree-vectorize -march=native -fno-math-errno -fopenmp -fPIC   
Using Fortran compiler: mpifort -O2 -ftree-vectorize -march=native -fno-math-errno -fopenmp -fPIC     
-----------------------------------------

Using include paths: -I/home/hrb33u/.local/easybuild/software/PETSc/3.14.4-foss-2020b/include -I/home/hrb33u/.local/easybuild/software/Hypre/2.20.0-foss-2020b/include -I/home/hrb33u/.local/easybuild/software/MUMPS/5.3.5-foss-2020b-metis/include -I/home/hrb33u/.local/easybuild/software/SuiteSparse/5.8.1-foss-2020b-METIS-5.1.0/UMFPACK/Include -I/home/hrb33u/.local/easybuild/software/SuiteSparse/5.8.1-foss-2020b-METIS-5.1.0/KLU/Include -I/home/hrb33u/.local/easybuild/software/SuiteSparse/5.8.1-foss-2020b-METIS-5.1.0/CHOLMOD/Include -I/home/hrb33u/.local/easybuild/software/SuiteSparse/5.8.1-foss-2020b-METIS-5.1.0/BTF/Include -I/home/hrb33u/.local/easybuild/software/SuiteSparse/5.8.1-foss-2020b-METIS-5.1.0/CCOLAMD/Include -I/home/hrb33u/.local/easybuild/software/SuiteSparse/5.8.1-foss-2020b-METIS-5.1.0/COLAMD/Include -I/home/hrb33u/.local/easybuild/software/SuiteSparse/5.8.1-foss-2020b-METIS-5.1.0/CAMD/Include -I/home/hrb33u/.local/easybuild/software/SuiteSparse/5.8.1-foss-2020b-METIS-5.1.0/AMD/Include -I/home/hrb33u/.local/easybuild/software/SuiteSparse/5.8.1-foss-2020b-METIS-5.1.0/SuiteSparse_config -I/apps/all/FFTW/3.3.8-gompi-2020b/include -I/home/hrb33u/.local/easybuild/software/SCOTCH/6.1.0-gompi-2020b/include -I/home/hrb33u/.local/easybuild/software/METIS/5.1.0-GCCcore-10.2.0/include -I/home/hrb33u/.local/easybuild/software/Boost/1.74.0-GCC-10.2.0/include
-----------------------------------------

Using C linker: mpicc
Using Fortran linker: mpifort
Using libraries: -Wl,-rpath,/home/hrb33u/.local/easybuild/software/PETSc/3.14.4-foss-2020b/lib -L/home/hrb33u/.local/easybuild/software/PETSc/3.14.4-foss-2020b/lib -lpetsc -Wl,-rpath,/home/hrb33u/.local/easybuild/software/Hypre/2.20.0-foss-2020b/lib -L/home/hrb33u/.local/easybuild/software/Hypre/2.20.0-foss-2020b/lib -Wl,-rpath,/home/hrb33u/.local/easybuild/software/MUMPS/5.3.5-foss-2020b-metis/lib -L/home/hrb33u/.local/easybuild/software/MUMPS/5.3.5-foss-2020b-metis/lib -Wl,-rpath,/apps/all/ScaLAPACK/2.1.0-gompi-2020b/lib -L/apps/all/ScaLAPACK/2.1.0-gompi-2020b/lib -Wl,-rpath,/home/hrb33u/.local/easybuild/software/SuiteSparse/5.8.1-foss-2020b-METIS-5.1.0/UMFPACK/Lib -L/home/hrb33u/.local/easybuild/software/SuiteSparse/5.8.1-foss-2020b-METIS-5.1.0/UMFPACK/Lib -Wl,-rpath,/home/hrb33u/.local/easybuild/software/SuiteSparse/5.8.1-foss-2020b-METIS-5.1.0/KLU/Lib -L/home/hrb33u/.local/easybuild/software/SuiteSparse/5.8.1-foss-2020b-METIS-5.1.0/KLU/Lib -Wl,-rpath,/home/hrb33u/.local/easybuild/software/SuiteSparse/5.8.1-foss-2020b-METIS-5.1.0/CHOLMOD/Lib -L/home/hrb33u/.local/easybuild/software/SuiteSparse/5.8.1-foss-2020b-METIS-5.1.0/CHOLMOD/Lib -Wl,-rpath,/home/hrb33u/.local/easybuild/software/SuiteSparse/5.8.1-foss-2020b-METIS-5.1.0/BTF/Lib -L/home/hrb33u/.local/easybuild/software/SuiteSparse/5.8.1-foss-2020b-METIS-5.1.0/BTF/Lib -Wl,-rpath,/home/hrb33u/.local/easybuild/software/SuiteSparse/5.8.1-foss-2020b-METIS-5.1.0/CCOLAMD/Lib -L/home/hrb33u/.local/easybuild/software/SuiteSparse/5.8.1-foss-2020b-METIS-5.1.0/CCOLAMD/Lib -Wl,-rpath,/home/hrb33u/.local/easybuild/software/SuiteSparse/5.8.1-foss-2020b-METIS-5.1.0/COLAMD/Lib -L/home/hrb33u/.local/easybuild/software/SuiteSparse/5.8.1-foss-2020b-METIS-5.1.0/COLAMD/Lib -Wl,-rpath,/home/hrb33u/.local/easybuild/software/SuiteSparse/5.8.1-foss-2020b-METIS-5.1.0/CAMD/Lib -L/home/hrb33u/.local/easybuild/software/SuiteSparse/5.8.1-foss-2020b-METIS-5.1.0/CAMD/Lib -Wl,-rpath,/home/hrb33u/.local/easybuild/software/SuiteSparse/5.8.1-foss-2020b-METIS-5.1.0/AMD/Lib -L/home/hrb33u/.local/easybuild/software/SuiteSparse/5.8.1-foss-2020b-METIS-5.1.0/AMD/Lib -Wl,-rpath,/home/hrb33u/.local/easybuild/software/SuiteSparse/5.8.1-foss-2020b-METIS-5.1.0/SuiteSparse_config -L/home/hrb33u/.local/easybuild/software/SuiteSparse/5.8.1-foss-2020b-METIS-5.1.0/SuiteSparse_config -Wl,-rpath,/apps/all/FFTW/3.3.8-gompi-2020b/lib -L/apps/all/FFTW/3.3.8-gompi-2020b/lib -Wl,-rpath,/apps/all/OpenBLAS/0.3.12-GCC-10.2.0/lib -L/apps/all/OpenBLAS/0.3.12-GCC-10.2.0/lib -Wl,-rpath,/home/hrb33u/.local/easybuild/software/SCOTCH/6.1.0-gompi-2020b/lib -L/home/hrb33u/.local/easybuild/software/SCOTCH/6.1.0-gompi-2020b/lib -Wl,-rpath,/home/hrb33u/.local/easybuild/software/METIS/5.1.0-GCCcore-10.2.0/lib -L/home/hrb33u/.local/easybuild/software/METIS/5.1.0-GCCcore-10.2.0/lib -Wl,-rpath,/apps/all/hwloc/2.2.0-GCCcore-10.2.0/lib -L/apps/all/hwloc/2.2.0-GCCcore-10.2.0/lib -Wl,-rpath,/apps/all/OpenMPI/4.0.5-GCC-10.2.0/lib -L/apps/all/OpenMPI/4.0.5-GCC-10.2.0/lib -Wl,-rpath,/home/hrb33u/.local/easybuild/software/Hypre/2.20.0-foss-2020b/lib64 -L/home/hrb33u/.local/easybuild/software/Hypre/2.20.0-foss-2020b/lib64 -Wl,-rpath,/home/hrb33u/.local/easybuild/software/SuiteSparse/5.8.1-foss-2020b-METIS-5.1.0/lib64 -L/home/hrb33u/.local/easybuild/software/SuiteSparse/5.8.1-foss-2020b-METIS-5.1.0/lib64 -Wl,-rpath,/home/hrb33u/.local/easybuild/software/MPFR/4.1.0-GCCcore-10.2.0/lib64 -L/home/hrb33u/.local/easybuild/software/MPFR/4.1.0-GCCcore-10.2.0/lib64 -Wl,-rpath,/home/hrb33u/.local/easybuild/software/MUMPS/5.3.5-foss-2020b-metis/lib64 -L/home/hrb33u/.local/easybuild/software/MUMPS/5.3.5-foss-2020b-metis/lib64 -Wl,-rpath,/home/hrb33u/.local/easybuild/software/SCOTCH/6.1.0-gompi-2020b/lib64 -L/home/hrb33u/.local/easybuild/software/SCOTCH/6.1.0-gompi-2020b/lib64 -Wl,-rpath,/home/hrb33u/.local/easybuild/software/METIS/5.1.0-GCCcore-10.2.0/lib64 -L/home/hrb33u/.local/easybuild/software/METIS/5.1.0-GCCcore-10.2.0/lib64 -Wl,-rpath,/home/hrb33u/.local/easybuild/software/Boost/1.74.0-GCC-10.2.0/lib64 -L/home/hrb33u/.local/easybuild/software/Boost/1.74.0-GCC-10.2.0/lib64 -Wl,-rpath,/apps/all/SciPy-bundle/2020.11-foss-2020b/lib64 -L/apps/all/SciPy-bundle/2020.11-foss-2020b/lib64 -Wl,-rpath,/apps/all/Python/3.8.6-GCCcore-10.2.0/lib64 -L/apps/all/Python/3.8.6-GCCcore-10.2.0/lib64 -Wl,-rpath,/apps/all/libffi/3.3-GCCcore-10.2.0/lib64 -L/apps/all/libffi/3.3-GCCcore-10.2.0/lib64 -Wl,-rpath,/apps/all/GMP/6.2.0-GCCcore-10.2.0/lib64 -L/apps/all/GMP/6.2.0-GCCcore-10.2.0/lib64 -Wl,-rpath,/apps/all/SQLite/3.33.0-GCCcore-10.2.0/lib64 -L/apps/all/SQLite/3.33.0-GCCcore-10.2.0/lib64 -Wl,-rpath,/apps/all/Tcl/8.6.10-GCCcore-10.2.0/lib64 -L/apps/all/Tcl/8.6.10-GCCcore-10.2.0/lib64 -Wl,-rpath,/apps/all/libreadline/8.0-GCCcore-10.2.0/lib64 -L/apps/all/libreadline/8.0-GCCcore-10.2.0/lib64 -Wl,-rpath,/apps/all/libarchive/3.4.3-GCCcore-10.2.0/lib64 -L/apps/all/libarchive/3.4.3-GCCcore-10.2.0/lib64 -Wl,-rpath,/apps/all/cURL/7.72.0-GCCcore-10.2.0/lib64 -L/apps/all/cURL/7.72.0-GCCcore-10.2.0/lib64 -Wl,-rpath,/apps/all/bzip2/1.0.8-GCCcore-10.2.0/lib64 -L/apps/all/bzip2/1.0.8-GCCcore-10.2.0/lib64 -Wl,-rpath,/apps/all/ncurses/6.2-GCCcore-10.2.0/lib64 -L/apps/all/ncurses/6.2-GCCcore-10.2.0/lib64 -Wl,-rpath,/apps/all/ScaLAPACK/2.1.0-gompi-2020b/lib64 -L/apps/all/ScaLAPACK/2.1.0-gompi-2020b/lib64 -Wl,-rpath,/apps/all/FFTW/3.3.8-gompi-2020b/lib64 -L/apps/all/FFTW/3.3.8-gompi-2020b/lib64 -Wl,-rpath,/apps/all/OpenBLAS/0.3.12-GCC-10.2.0/lib64 -L/apps/all/OpenBLAS/0.3.12-GCC-10.2.0/lib64 -Wl,-rpath,/apps/all/OpenMPI/4.0.5-GCC-10.2.0/lib64 -L/apps/all/OpenMPI/4.0.5-GCC-10.2.0/lib64 -Wl,-rpath,/apps/all/PMIx/3.1.5-GCCcore-10.2.0/lib64 -L/apps/all/PMIx/3.1.5-GCCcore-10.2.0/lib64 -Wl,-rpath,/apps/all/libevent/2.1.12-GCCcore-10.2.0/lib64 -L/apps/all/libevent/2.1.12-GCCcore-10.2.0/lib64 -Wl,-rpath,/apps/all/libfabric/1.11.0-GCCcore-10.2.0/lib64 -L/apps/all/libfabric/1.11.0-GCCcore-10.2.0/lib64 -Wl,-rpath,/apps/all/UCX/1.9.0-GCCcore-10.2.0/lib64 -L/apps/all/UCX/1.9.0-GCCcore-10.2.0/lib64 -Wl,-rpath,/apps/all/hwloc/2.2.0-GCCcore-10.2.0/lib64 -L/apps/all/hwloc/2.2.0-GCCcore-10.2.0/lib64 -Wl,-rpath,/apps/all/libpciaccess/0.16-GCCcore-10.2.0/lib64 -L/apps/all/libpciaccess/0.16-GCCcore-10.2.0/lib64 -Wl,-rpath,/apps/all/libxml2/2.9.10-GCCcore-10.2.0/lib64 -L/apps/all/libxml2/2.9.10-GCCcore-10.2.0/lib64 -Wl,-rpath,/apps/all/XZ/5.2.5-GCCcore-10.2.0/lib64 -L/apps/all/XZ/5.2.5-GCCcore-10.2.0/lib64 -Wl,-rpath,/apps/all/numactl/2.0.13-GCCcore-10.2.0/lib64 -L/apps/all/numactl/2.0.13-GCCcore-10.2.0/lib64 -Wl,-rpath,/apps/all/binutils/2.35-GCCcore-10.2.0/lib64 -L/apps/all/binutils/2.35-GCCcore-10.2.0/lib64 -Wl,-rpath,/apps/all/zlib/1.2.11-GCCcore-10.2.0/lib64 -L/apps/all/zlib/1.2.11-GCCcore-10.2.0/lib64 -Wl,-rpath,/apps/all/GCCcore/10.2.0/lib/gcc/x86_64-pc-linux-gnu/10.2.0 -L/apps/all/GCCcore/10.2.0/lib/gcc/x86_64-pc-linux-gnu/10.2.0 -Wl,-rpath,/apps/all/GCCcore/10.2.0/lib64 -L/apps/all/GCCcore/10.2.0/lib64 -Wl,-rpath,/home/hrb33u/.local/easybuild/software/SuiteSparse/5.8.1-foss-2020b-METIS-5.1.0/lib -L/home/hrb33u/.local/easybuild/software/SuiteSparse/5.8.1-foss-2020b-METIS-5.1.0/lib -Wl,-rpath,/home/hrb33u/.local/easybuild/software/MPFR/4.1.0-GCCcore-10.2.0/lib -L/home/hrb33u/.local/easybuild/software/MPFR/4.1.0-GCCcore-10.2.0/lib -Wl,-rpath,/home/hrb33u/.local/easybuild/software/Boost/1.74.0-GCC-10.2.0/lib -L/home/hrb33u/.local/easybuild/software/Boost/1.74.0-GCC-10.2.0/lib -Wl,-rpath,/apps/all/SciPy-bundle/2020.11-foss-2020b/lib/python3.8/site-packages/numpy/core/lib -L/apps/all/SciPy-bundle/2020.11-foss-2020b/lib/python3.8/site-packages/numpy/core/lib -Wl,-rpath,/apps/all/SciPy-bundle/2020.11-foss-2020b/lib -L/apps/all/SciPy-bundle/2020.11-foss-2020b/lib -Wl,-rpath,/apps/all/Python/3.8.6-GCCcore-10.2.0/lib -L/apps/all/Python/3.8.6-GCCcore-10.2.0/lib -Wl,-rpath,/apps/all/libffi/3.3-GCCcore-10.2.0/lib -L/apps/all/libffi/3.3-GCCcore-10.2.0/lib -Wl,-rpath,/apps/all/GMP/6.2.0-GCCcore-10.2.0/lib -L/apps/all/GMP/6.2.0-GCCcore-10.2.0/lib -Wl,-rpath,/apps/all/SQLite/3.33.0-GCCcore-10.2.0/lib -L/apps/all/SQLite/3.33.0-GCCcore-10.2.0/lib -Wl,-rpath,/apps/all/Tcl/8.6.10-GCCcore-10.2.0/lib -L/apps/all/Tcl/8.6.10-GCCcore-10.2.0/lib -Wl,-rpath,/apps/all/libreadline/8.0-GCCcore-10.2.0/lib -L/apps/all/libreadline/8.0-GCCcore-10.2.0/lib -Wl,-rpath,/apps/all/libarchive/3.4.3-GCCcore-10.2.0/lib -L/apps/all/libarchive/3.4.3-GCCcore-10.2.0/lib -Wl,-rpath,/apps/all/cURL/7.72.0-GCCcore-10.2.0/lib -L/apps/all/cURL/7.72.0-GCCcore-10.2.0/lib -Wl,-rpath,/apps/all/bzip2/1.0.8-GCCcore-10.2.0/lib -L/apps/all/bzip2/1.0.8-GCCcore-10.2.0/lib -Wl,-rpath,/apps/all/ncurses/6.2-GCCcore-10.2.0/lib -L/apps/all/ncurses/6.2-GCCcore-10.2.0/lib -Wl,-rpath,/apps/all/PMIx/3.1.5-GCCcore-10.2.0/lib -L/apps/all/PMIx/3.1.5-GCCcore-10.2.0/lib -Wl,-rpath,/apps/all/libevent/2.1.12-GCCcore-10.2.0/lib -L/apps/all/libevent/2.1.12-GCCcore-10.2.0/lib -Wl,-rpath,/apps/all/libfabric/1.11.0-GCCcore-10.2.0/lib -L/apps/all/libfabric/1.11.0-GCCcore-10.2.0/lib -Wl,-rpath,/apps/all/UCX/1.9.0-GCCcore-10.2.0/lib -L/apps/all/UCX/1.9.0-GCCcore-10.2.0/lib -Wl,-rpath,/apps/all/libpciaccess/0.16-GCCcore-10.2.0/lib -L/apps/all/libpciaccess/0.16-GCCcore-10.2.0/lib -Wl,-rpath,/apps/all/libxml2/2.9.10-GCCcore-10.2.0/lib -L/apps/all/libxml2/2.9.10-GCCcore-10.2.0/lib -Wl,-rpath,/apps/all/XZ/5.2.5-GCCcore-10.2.0/lib -L/apps/all/XZ/5.2.5-GCCcore-10.2.0/lib -Wl,-rpath,/apps/all/numactl/2.0.13-GCCcore-10.2.0/lib -L/apps/all/numactl/2.0.13-GCCcore-10.2.0/lib -Wl,-rpath,/apps/all/binutils/2.35-GCCcore-10.2.0/lib -L/apps/all/binutils/2.35-GCCcore-10.2.0/lib -Wl,-rpath,/apps/all/zlib/1.2.11-GCCcore-10.2.0/lib -L/apps/all/zlib/1.2.11-GCCcore-10.2.0/lib -Wl,-rpath,/apps/all/GCCcore/10.2.0/lib -L/apps/all/GCCcore/10.2.0/lib -lHYPRE -lcmumps -ldmumps -lsmumps -lzmumps -lmumps_common -lpord -lscalapack -lopenblas -lgfortran -lumfpack -lklu -lcholmod -lbtf -lccolamd -lcolamd -lcamd -lamd -lsuitesparseconfig -lfftw3_mpi -lfftw3 -lopenblas -lgfortran -lptesmumps -lptscotchparmetis -lptscotch -lptscotcherr -lesmumps -lscotch -lscotcherr -lmetis -lstdc++ -ldl -lgfortran -lm -lpthread -lrt -lmpi_usempif08 -lmpi_usempi_ignore_tkr -lmpi_mpifh -lmpi -lgfortran -lm -lgfortran -lgomp -lgcc_s -lquadmath -lstdc++ -ldl -lm -lpthread -lrt
-----------------------------------------

