----------------------------------------------------
Job ordering:  spectral
Job processes: 9
----------------------------------------------------
Loaded modules:
----------------------------------------------------
