----------------------------------------------------
Job ordering:  wbm
Job processes: 9
----------------------------------------------------
Loaded modules:
----------------------------------------------------
