----------------------------------------------------
Job ordering:  wbm
Job processes: 36
----------------------------------------------------
Loaded modules:
----------------------------------------------------
